<?xml version="1.0" encoding="UTF-8" standalone="no"?>
<!-- Creator: CorelDRAW 2020 (64-Bit) -->

<svg
   xml:space="preserve"
   width="280"
   height="58.171001"
   version="1.1"
   style="clip-rule:evenodd;fill-rule:evenodd;image-rendering:optimizeQuality;shape-rendering:geometricPrecision;text-rendering:geometricPrecision"
   viewBox="0 0 7408.3288 1539.1078"
   id="svg91"
   sodipodi:docname="virgo.svg"
   inkscape:version="1.1.1 (3bf5ae0d25, 2021-09-20)"
   xmlns:inkscape="http://www.inkscape.org/namespaces/inkscape"
   xmlns:sodipodi="http://sodipodi.sourceforge.net/DTD/sodipodi-0.dtd"
   xmlns="http://www.w3.org/2000/svg"
   xmlns:svg="http://www.w3.org/2000/svg"><sodipodi:namedview
   id="namedview93"
   pagecolor="#ffffff"
   bordercolor="#666666"
   borderopacity="1.0"
   inkscape:pageshadow="2"
   inkscape:pageopacity="0.0"
   inkscape:pagecheckerboard="0"
   inkscape:document-units="mm"
   showgrid="false"
   width="280px"
   inkscape:zoom="0.5232146"
   inkscape:cx="953.71956"
   inkscape:cy="255.15343"
   inkscape:window-width="1920"
   inkscape:window-height="1016"
   inkscape:window-x="0"
   inkscape:window-y="27"
   inkscape:window-maximized="1"
   inkscape:current-layer="Layer_x0020_1"
   units="px" />
 <defs
   id="defs4">
  <style
   type="text/css"
   id="style2">
   <![CDATA[
    .fil0 {fill:#DEDC0A;fill-rule:nonzero}
    .fil1 {fill:#AB5945;fill-rule:nonzero}
   ]]>
  </style>
 </defs>
 <g
   id="Layer_x0020_1"
   inkscape:label="Layer 1"
   inkscape:groupmode="layer">
  <metadata
   id="CorelCorpID_0Corel-Layer" />
  <g
   id="Virgo.eps"
   transform="matrix(0.11427457,0,0,0.11427457,0.60234032,2.5057477)">
   <path
   class="fil0"
   d="m 17205.79,7852.38 c 2.57,-740.16 278.15,-1400.32 829.32,-1980.75 670.73,-705.47 1469.5,-1054.21 2399.99,-1051.6 927.75,1.37 1723.74,354.13 2386.6,1062.25 549.79,587.01 822.64,1249.92 819.99,1991.36 0,733.5 -262.2,1385.7 -786.67,1956.77 -641.64,704.13 -1453.59,1054.27 -2433.31,1052.9 -981.06,-2.65 -1794.33,-356.76 -2437.3,-1063.59 -248.84,-274.19 -443.19,-581.68 -579.06,-921.09 -133.04,-338.08 -199.56,-686.86 -199.56,-1046.25 z m 1249.79,-71.95 c -1.24,795.99 174.45,1470.96 532.51,2028.7 400.72,614.93 891.86,927.78 1476.22,929.08 246.28,0 487.26,-67.88 720.15,-206.31 234.25,-134.48 436.64,-326.11 605.62,-574.99 179.76,-254.25 326.19,-576.48 436.65,-963.74 110.45,-386.03 165.08,-761.51 166.36,-1122.22 0,-374.02 -57.23,-754.75 -172.99,-1136.77 -118.55,-382.02 -271.52,-712.14 -467.28,-984.99 -376.71,-519.16 -835.99,-778.7 -1380.4,-780.03 -517.79,-1.41 -966.33,270.19 -1343.09,813.27 -380.73,544.5 -572.29,1210.01 -573.75,1998 z"
   id="path7" />
   <path
   class="fil1"
   d="m 10761.81,5857.04 c 165,-288.89 350.06,-505.86 557.75,-651.01 379.28,-268.82 813.28,-403.24 1297.79,-401.95 299.5,0 527.21,65.19 680.23,199.69 143.74,119.74 214.24,266.21 213,437.88 0,129.11 -42.65,235.63 -127.74,316.83 -86.54,82.56 -194.47,125.13 -327.52,123.8 -154.47,0 -291.49,-66.52 -403.32,-192.98 l -212.95,-234.25 c -170.43,-179.76 -367.47,-268.96 -597.71,-268.96 -311.52,-1.28 -553.78,201.02 -730.79,603.02 -174.46,401.99 -260.96,962.4 -262.2,1679.84 l -2.74,1284.57 5.35,524.43 c 0,308.86 17.33,537.81 51.89,681.57 37.22,146.41 106.48,264.9 213,362.02 129.19,123.86 366.1,219.65 708.21,282.22 l -1.37,138.43 -3032.31,-5.28 1.33,-139.75 c 274.25,-35.98 471.21,-87.88 589.66,-153.14 121.15,-63.85 216.98,-179.7 290.17,-338.09 52.02,-106.51 87.91,-266.25 109.26,-476.51 21.26,-214.39 31.87,-521.8 31.87,-923.81 l 4.02,-1697.17 c 1.37,-472.58 -10.61,-802.66 -33.32,-991.71 -19.89,-190.32 -71.83,-344.8 -149.04,-464.53 -75.85,-130.48 -171.72,-219.63 -280.89,-280.89 -110.46,-55.87 -267.59,-91.89 -472.58,-106.52 v -137.11 l 1766.47,-243.58 c 75.85,417.95 114.48,774.68 114.48,1072.94 z"
   id="path9" />
   <path
   class="fil1"
   d="m 6036.31,5021.05 1972.75,-240.89 -8,3969.39 5.26,521.77 c -1.23,310.14 17.33,539.08 51.98,682.88 38.54,145.1 107.76,264.85 213,362.09 129.02,125.12 363.32,216.89 706.75,280.87 v 139.75 l -3030.94,-6.72 v -138.41 c 276.91,-35.88 473.95,-87.85 592.32,-153.11 119.91,-65.23 215.65,-179.65 288.89,-339.37 50.52,-105.13 86.54,-266.25 107.76,-475.23 21.39,-214.28 32,-523.15 32,-925.13 l 3.98,-1697.13 c 1.37,-471.26 -9.29,-802.71 -33.24,-991.75 -19.98,-190.32 -71.87,-343.39 -149.09,-464.54 -77.21,-127.82 -170.43,-220.99 -280.89,-278.19 -109.17,-58.61 -266.25,-93.17 -473.9,-107.85 z"
   id="path11" />
   <path
   class="fil1"
   d="m -4.31,5021.05 2659.62,5.35 -1.38,145.06 c -200.99,42.57 -339.39,85.22 -412.61,138.48 -147.77,89.15 -221.01,234.21 -221.01,437.93 0,123.76 22.63,266.17 67.88,432.54 46.62,163.75 129.13,403.36 254.25,720.23 l 1104.87,2825.9 1127.5,-2939.14 c 167.64,-432.63 248.79,-757.36 250.25,-967.66 0,-226.3 -70.58,-396.69 -213.04,-501.84 -71.96,-53.26 -208.97,-99.85 -405.94,-143.74 l 1.25,-145.11 1896.87,5.31 v 143.78 c -259.63,63.91 -464.63,177.02 -620.34,342.1 -198.28,205 -425.91,637.58 -682.8,1297.83 l -1594.74,4047.95 -371.38,-1.34 L 1117.82,6602.42 C 854.3,5948.84 665.28,5552.2 550.81,5413.72 488.21,5340.53 416.31,5287.27 337.8,5252.7 260.56,5218.05 146.07,5190.11 -4.31,5166.16 Z"
   id="path13" />
   <path
   class="fil0"
   d="m 14172.11,11507.62 -127.78,37.28 c -78.5,-131.72 -155.76,-222.34 -234.25,-275.63 -82.52,-50.46 -177.02,-77.1 -294.24,-78.45 -194.3,0 -356.74,74.48 -479.26,226.24 -123.75,146.43 -184.97,339.48 -186.25,577.74 0,376.73 188.99,688.17 564.38,931.77 379.37,243.59 861.23,364.73 1446.87,366.11 625.74,1.23 1130.23,-131.77 1514.9,-400.77 384.62,-267.54 579.06,-613.61 580.34,-1043.5 0,-343.48 -129.11,-608.37 -383.35,-792.04 -256.88,-186.43 -622.9,-279.61 -1096.85,-280.94 l -1112.81,-2.64 c -457.95,0 -825.25,-107.79 -1103.49,-323.4 -288.89,-224.97 -433.99,-492.48 -433.99,-806.69 1.37,-327.43 154.47,-589.68 463.25,-781.37 159.74,-90.52 448.54,-191.7 869.27,-299.5 -406.01,-186.39 -718.81,-432.62 -941.18,-738.79 -223.61,-304.85 -335.39,-641.6 -334.1,-1008.99 0,-471.17 175.78,-890.49 527.16,-1256.55 206.33,-219.63 447.21,-388.69 728.1,-509.84 280.89,-119.74 567.04,-181 859.99,-179.67 449.78,1.28 905.03,159.69 1369.66,479.17 219.58,-173 417.95,-292.83 592.31,-367.35 173.05,-70.58 364.74,-106.52 571.06,-106.52 228.96,1.33 412.69,49.24 549.76,147.76 170.43,121.15 252.95,271.52 252.95,448.58 0,107.81 -33.24,195.67 -98.48,268.91 -65.28,71.87 -149.13,107.85 -246.28,106.48 -147.76,0 -283.54,-78.5 -404.73,-238.24 l -159.69,-210.34 c -87.83,-111.83 -214.28,-169.02 -376.76,-169.02 -174.32,0 -356.69,86.5 -547.01,259.49 379.36,461.93 566.99,935.84 565.71,1425.62 -1.33,611.01 -272.94,1094.24 -814.73,1447 -271.48,177.02 -564.3,295.47 -877.1,353.99 -93.22,14.68 -388.73,37.4 -887.88,66.61 -685.53,42.57 -1029.01,232.93 -1030.29,573.73 0,298.17 290.21,447.3 873.25,448.58 l 1154.05,2.71 c 405.97,0 748.08,37.26 1027.59,109.15 280.89,74.5 523.15,187.64 733.41,340.75 409.99,303.49 613.71,732.07 612.43,1283.12 0,603.01 -239.7,1078.24 -714.84,1416.37 -491.19,347.41 -1210.01,521.76 -2155.13,519.15 -1016.99,-2.64 -1737.13,-207.69 -2160.38,-619.02 -268.91,-266.25 -404.65,-597.64 -403.37,-993 0,-312.78 101.26,-576.37 300.82,-793.37 202.39,-215.61 445.93,-323.43 734.78,-323.43 209.06,1.31 380.64,62.59 515.19,190.33 130.43,126.51 196.99,291.5 196.99,496.51 z m -294.14,-4642.96 c -1.37,501.8 102.45,913.16 315.4,1229.98 210.35,318.15 483.19,476.52 811.99,477.8 336.76,1.37 596.43,-157.04 784.06,-471.17 187.71,-314.12 280.89,-750.77 282.12,-1309.85 1.42,-577.69 -119.73,-1036.88 -359.29,-1384.37 -175.7,-255.57 -406.02,-386 -684.21,-386 -335.43,0 -606.99,166.37 -813.32,501.84 -99.89,167.74 -183.65,372.74 -244.91,616.28 -59.98,239.6 -90.52,483.23 -91.84,725.49 z"
   id="path15" />
   <path
   class="fil0"
   d="m 7078.58,2460 c -98.48,-681.6 131.75,-1445.59 437.97,-2156.45 179.67,-417.95 356.78,-399.3 517.75,71.87 291.5,851.94 395.28,1701.19 183.74,2499.88 -146.48,551.08 -413.97,447.25 -768.1,25.28 z"
   id="path17" />
   <path
   class="fil0"
   d="m 6882.86,2529.17 c -665.51,-174.37 -1452.26,-33.24 -2192.3,189.04 -433.96,130.48 -436.63,308.82 11.98,521.82 814.69,387.37 1646.57,586.97 2462.53,467.19 564.48,-82.56 491.24,-360.71 113.24,-760.05 z"
   id="path19" />
   <path
   class="fil1"
   d="m 26969.51,6692.94 492.52,154.48 c -75.89,274.13 -200.98,477.75 -376.67,610.93 -174.41,133.08 -396.78,198.32 -665.56,198.32 -334.19,0 -608.36,-111.78 -822.73,-340.78 -214.23,-227.58 -320.75,-537.73 -320.75,-934.47 0,-416.62 106.52,-740.07 322.12,-971.68 215.61,-230.32 499.15,-347.41 850.58,-347.41 307.54,0 557.8,91.85 748.08,272.85 114.47,106.47 199.69,262.23 256.97,463.25 l -501.88,118.5 c -29.35,-129.11 -91.85,-231.65 -185.07,-307.54 -94.54,-74.52 -208.93,-111.78 -343.29,-111.78 -186.48,0 -336.85,65.2 -452.7,198.28 -115.8,134.54 -174.32,350.15 -174.32,648.27 0,318.15 57.24,544.5 171.76,678.91 114.39,134.45 262.15,202.34 445.8,202.34 134.5,0 250.25,-43.97 347.49,-129.15 95.83,-85.21 165,-220.95 207.65,-403.32 z"
   id="path21" />
   <path
   class="fil1"
   d="m 27721.61,6376.16 c 0,-255.6 38.59,-471.21 114.48,-642.97 58.52,-127.78 135.74,-242.3 234.21,-343.43 99.85,-102.49 206.28,-178.34 323.5,-226.3 157.08,-65.15 338.04,-101.13 541.8,-101.13 369.99,0 665.51,115.81 887.74,344.72 222.37,228.99 332.83,548.47 332.83,955.77 0,406.01 -110.46,721.47 -330.09,951.75 -219.62,228.99 -515.14,342.1 -883.9,342.1 -372.6,0 -669.53,-111.78 -889.12,-340.78 -220.95,-227.58 -331.45,-540.43 -331.45,-939.73 z m 523.1,-17.37 c 0,283.54 63.87,499.24 197,645.63 130.43,146.47 296.84,220.99 499.15,220.99 202.34,0 367.47,-73.23 497.86,-218.39 129.15,-146.34 193.06,-364.69 193.06,-654.86 0,-288.88 -62.54,-501.79 -189.08,-642.92 -125.13,-142.46 -292.87,-211.63 -501.84,-211.63 -209.02,0 -378.04,70.54 -504.5,214.32 -129.06,143.7 -191.65,358.06 -191.65,646.86 z"
   id="path23" />
   <polygon
   class="fil1"
   points="31233.09,5106.22 31688.34,6818.07 32138.21,5106.22 32898.3,5106.22 32898.3,7614.06 32427.09,7614.06 32427.09,5640.02 31929.32,7614.06 31440.74,7614.06 30945.57,5640.02 30945.57,7614.06 30474.36,7614.06 30474.36,5106.22 "
   id="polygon25" />
   <polygon
   class="fil1"
   points="34083.07,5106.22 34538.28,6818.07 34988.1,5106.22 35746.96,5106.22 35746.96,7614.06 35277.08,7614.06 35277.08,5640.02 34779.22,7614.06 34290.63,7614.06 33795.47,5640.02 33795.47,7614.06 33324.3,7614.06 33324.3,5106.22 "
   id="polygon27" />
   <path
   class="fil1"
   d="m 36178.09,5106.22 h 505.86 v 1359.1 c 0,214.36 6.72,355.36 18.7,419.32 21.17,101.17 73.06,185.02 155.58,246.28 81.5,62.49 191.91,94.49 333.04,94.49 143.56,0 252.96,-29.3 325.97,-89.23 73.37,-58.52 117.13,-130.39 131.94,-215.65 14.45,-86.5 22.54,-227.59 22.54,-427.24 V 5106.22 h 506.97 v 1316.53 c 0,302.15 -14.5,515.15 -42.34,638.91 -26.83,123.8 -77.26,228.99 -150.64,314.17 -73.01,85.21 -171.45,154.34 -295.29,206.32 -123.81,49.24 -283.63,74.52 -481.87,74.52 -239.56,0 -421.92,-27.98 -545.77,-81.24 -123.8,-55.91 -222.24,-129.02 -294.19,-216.93 -72,-89.2 -118.55,-181.09 -141.13,-278.24 -34.57,-143.69 -49.37,-355.36 -49.37,-636.2 z"
   id="path29" />
   <polygon
   class="fil1"
   points="40636.14,5106.22 40636.14,7614.06 40127.45,7614.06 39117.4,5978.19 39117.4,7614.06 38646.1,7614.06 38646.1,5106.22 39139.99,5106.22 40166.25,6782.14 40166.25,5106.22 "
   id="polygon31" />
   <polygon
   class="fil1"
   points="41085.96,5106.22 41085.96,7614.06 41593.25,7614.06 41593.25,5106.22 "
   id="polygon33" />
   <path
   class="fil1"
   d="m 43611.12,6692.94 491.06,154.48 c -74.43,274.13 -199.65,477.75 -375.34,610.93 -175.7,133.08 -396.52,198.32 -666.75,198.32 -332.69,0 -607.13,-111.78 -821.28,-340.78 -214.5,-227.58 -322.08,-537.73 -322.08,-934.47 0,-416.62 107.58,-740.07 323.5,-971.68 214.15,-230.32 499.19,-347.41 850.53,-347.41 307.28,0 556.34,91.85 747.9,272.85 114.65,106.47 199.65,262.23 257.2,463.25 l -502.02,118.5 c -29.31,-129.11 -91.72,-231.65 -184.84,-307.54 -94.55,-74.52 -209.2,-111.78 -343.61,-111.78 -186.3,0 -336.93,65.2 -452.65,198.28 -115.71,134.54 -174.28,350.15 -174.28,648.27 0,318.15 58.57,544.5 171.5,678.91 113.24,134.45 262.45,202.34 446.24,202.34 132.99,0 248.71,-43.97 346.08,-129.15 97.02,-85.21 166.14,-220.95 208.84,-403.32 z"
   id="path35" />
   <path
   class="fil1"
   d="m 46728.73,7614.06 h -551.16 l -218.35,-569.64 h -1003.77 l -206.41,569.64 h -537.47 l 977.25,-2507.84 h 536.14 z m -931.72,-991.66 -347.41,-930.49 -338.13,930.49 z"
   id="path37" />
   <polygon
   class="fil1"
   points="47739.14,7614.06 47231.73,7614.06 47231.73,5530.89 46487.85,5530.89 46487.85,5106.22 48481.69,5106.22 48481.69,5530.89 47739.14,5530.89 "
   id="polygon39" />
   <polygon
   class="fil1"
   points="48723.9,5106.22 48723.9,7614.06 49229.78,7614.06 49229.78,5106.22 "
   id="polygon41" />
   <path
   class="fil1"
   d="m 49541.15,6376.16 c 0,-255.6 37.57,-471.21 114.92,-642.97 55.69,-127.78 133.04,-242.3 232.93,-343.43 98.12,-102.49 205.97,-178.34 324.87,-226.3 155.58,-65.15 335.03,-101.13 540.12,-101.13 368.62,0 664.31,115.81 886.2,344.72 222.76,228.99 334.14,548.47 334.14,955.77 0,406.01 -110.49,721.47 -329.72,951.75 -221,228.99 -514.93,342.1 -883.99,342.1 -372.61,0 -669.63,-111.78 -889.3,-340.78 -221,-227.58 -330.17,-540.43 -330.17,-939.73 z m 522,-17.37 c 0,283.54 65.41,499.24 195.8,645.63 131.72,146.47 297.91,220.99 500.34,220.99 201.11,0 367.3,-73.23 496.36,-218.39 130.83,-146.34 194.48,-364.69 194.48,-654.86 0,-288.88 -62.32,-501.79 -189.18,-642.92 -126.41,-142.46 -293.92,-211.63 -501.66,-211.63 -209.06,0 -377.91,70.54 -505.64,214.32 -128.18,143.7 -190.5,358.06 -190.5,646.86 z"
   id="path43" />
   <polygon
   class="fil1"
   points="54294.81,5106.22 54294.81,7614.06 53787.84,7614.06 52776.11,5978.19 52776.11,7614.06 52304.51,7614.06 52304.51,5106.22 52798.66,5106.22 53824.97,6782.14 53824.97,5106.22 "
   id="polygon45" />
   <path
   class="fil1"
   d="m 54631.61,6798.14 493.71,-47.96 c 29.61,165.04 89.28,286.19 179.89,364.74 90.61,77.21 214.37,115.75 367.3,115.75 163.98,0 286.41,-33.23 368.62,-102.49 82.66,-70.5 123.76,-150.37 123.76,-242.26 0,-59.89 -17.24,-110.46 -51.71,-151.74 -34.92,-41.24 -95.91,-78.5 -182.55,-107.8 -58.78,-21.35 -194.03,-57.24 -406.19,-110.46 -271.38,-67.89 -461.44,-150.41 -570.62,-247.65 -154.69,-139.71 -231.6,-307.45 -231.6,-504.45 0,-129.1 35.8,-247.6 109.17,-358.06 71.61,-113.19 176.8,-197.04 312.49,-255.6 137.02,-57.24 302.33,-87.83 495.04,-87.83 314.7,0 549.84,70.55 711.17,207.65 156.91,138.44 240.89,323.46 250.17,552.45 l -506.97,22.59 c -21.22,-129.11 -68.07,-220.95 -138.79,-276.87 -71.6,-57.24 -178.12,-85.21 -322.21,-85.21 -146.3,0 -260.78,30.63 -344.76,90.52 -54.36,38.58 -80.88,91.84 -80.88,155.71 0,59.94 25.19,110.5 75.58,153.11 64.09,53.26 220.11,107.8 464.98,166.41 247.51,57.19 429.62,118.46 548.07,181 116.25,61.21 210.39,147.8 277.13,254.28 66.3,107.8 99.45,240.93 99.45,400.67 0,143.78 -39.78,278.14 -119.34,403.27 -80,126.5 -193.15,218.35 -339.89,279.52 -144.98,61.26 -327.08,91.85 -545.87,91.85 -316.47,0 -560,-71.83 -730.17,-220.87 -170.61,-146.48 -270.5,-359.47 -304.98,-640.27 z"
   id="path47" />
   <path
   class="fil1"
   d="m 60065.06,7614.06 h -551.17 l -218.35,-569.64 h -1003.32 l -207.74,569.64 h -537.91 l 978.58,-2507.84 h 534.81 z m -933.05,-991.66 -344.76,-930.49 -339.45,930.49 z"
   id="path49" />
   <polygon
   class="fil1"
   points="62259.12,5106.22 62259.12,7614.06 61750.39,7614.06 60738.66,5978.19 60738.66,7614.06 60268.82,7614.06 60268.82,5106.22 60761.64,5106.22 61788.84,6782.14 61788.84,5106.22 "
   id="polygon51" />
   <path
   class="fil1"
   d="m 62720.57,5106.22 h 926.42 c 209.06,0 369.06,16 478.24,47.96 147.62,43.93 272.71,119.83 379.23,231.61 103.87,110.49 183.87,244.91 238.23,406.01 56.14,160.98 82.22,356.74 82.22,592.32 0,206.28 -25.2,384.71 -75.59,535.08 -64.09,181.09 -154.69,328.84 -268.73,441.95 -89.28,85.26 -207.74,153.06 -356.69,200.98 -111.82,35.97 -262.1,51.93 -448.62,51.93 h -954.71 z m 506.96,424.67 v 1661.24 h 379.68 c 141.44,0 242.65,-7.95 306.3,-25.37 82.21,-19.89 148.95,-53.21 203.76,-102.45 54.37,-49.24 99.45,-131.76 132.6,-242.26 35.36,-113.15 50.83,-266.26 50.83,-460.56 0,-193.02 -15.47,-342.1 -50.83,-445.93 -33.15,-103.82 -82.21,-183.6 -143.21,-243.63 -61.43,-57.19 -139.67,-97.15 -234.25,-117.12 -70.72,-15.96 -210.39,-23.92 -415.92,-23.92 z"
   id="path53" />
   <polygon
   class="fil1"
   points="27225.07,9735.89 25871.29,9735.89 25871.29,10292.29 27130.58,10292.29 27130.58,10715.56 25871.29,10715.56 25871.29,11397.16 27273.07,11397.16 27273.07,11820.42 25364.14,11820.42 25364.14,9312.56 27225.07,9312.56 "
   id="polygon55" />
   <polygon
   class="fil1"
   points="28050.32,9312.56 28553.58,10117.91 29046.09,9312.56 29631.78,9312.56 28851.71,10529.19 29708.96,11820.42 29099.27,11820.42 28542.84,10952.56 27983.85,11820.42 27376.81,11820.42 28235.34,10510.66 27458.05,9312.56 "
   id="polygon57" />
   <polygon
   class="fil1"
   points="30407.79,10298.92 31400.87,10298.92 31400.87,9312.56 31907.97,9312.56 31907.97,11820.42 31400.87,11820.42 31400.87,10723.56 30407.79,10723.56 30407.79,11820.42 29901.93,11820.42 29901.93,9312.56 30407.79,9312.56 "
   id="polygon59" />
   <polygon
   class="fil1"
   points="32345.9,9312.56 32345.9,11820.42 32851.74,11820.42 32851.74,9312.56 "
   id="polygon61" />
   <path
   class="fil1"
   d="m 33267.06,9312.56 h 1002.31 c 198.33,0 346.09,8.01 443.24,23.99 98.52,17.31 185.02,50.62 262.23,103.87 77.26,51.88 142.46,121.09 193.02,208.98 51.94,87.81 77.22,185.03 77.22,294.15 0,118.49 -30.63,224.88 -95.83,323.48 -62.63,97.12 -149.13,171.64 -258.21,219.62 154.3,45.25 271.52,121.1 354.04,228.91 81.37,107.89 122.65,233.01 122.65,378.11 0,113.14 -26.78,224.89 -80.04,332.74 -51.89,107.77 -123.81,194.35 -216.98,258.24 -91.89,63.88 -205,103.78 -339.41,118.49 -85.21,9.29 -287.56,15.92 -610.97,17.28 h -853.27 z m 505.82,416.63 v 580.47 h 332.73 c 195.72,0 318.2,-2.73 367.48,-9.36 86.5,-9.37 155.76,-38.62 204.95,-89.14 49.33,-49.36 73.15,-114.52 73.15,-195.76 0,-78.5 -19.89,-141.1 -63.87,-188.98 -42.6,-49.24 -105.23,-78.53 -190.36,-87.88 -50.57,-6.63 -195.63,-9.35 -432.58,-9.35 z m 0,998.36 v 669.61 h 468.47 c 182.46,0 299.5,-4.03 347.5,-14.74 75.89,-13.26 138.52,-47.88 185.02,-99.77 47.95,-53.23 70.5,-123.76 70.5,-212.96 0,-75.89 -18.52,-138.51 -55.83,-191.74 -35.98,-53.28 -87.91,-91.8 -157.17,-115.78 -69.17,-22.62 -218.3,-34.62 -449.82,-34.62 z"
   id="path63" />
   <polygon
   class="fil1"
   points="35709.57,9312.56 35709.57,11820.42 36216.86,11820.42 36216.86,9312.56 "
   id="polygon65" />
   <polygon
   class="fil1"
   points="37701.03,11820.42 37193.7,11820.42 37193.7,9735.89 36449.74,9735.89 36449.74,9312.56 38443.98,9312.56 38443.98,9735.89 37701.03,9735.89 "
   id="polygon67" />
   <polygon
   class="fil1"
   points="38685.97,9312.56 38685.97,11820.42 39191.86,11820.42 39191.86,9312.56 "
   id="polygon69" />
   <path
   class="fil1"
   d="m 39503.35,10581.19 c 0,-255.63 37.44,-469.91 114.3,-644.29 56.13,-126.5 133.39,-240.97 233.2,-342.12 98.43,-102.48 206.36,-177.09 324.91,-227.61 155.58,-65.23 336.53,-98.53 540.12,-98.53 370.08,0 664.27,115.82 886.51,344.77 222.63,229 334.1,548.39 334.1,955.75 0,404.63 -110.46,721.51 -329.86,951.76 -221.18,228.95 -515.41,342.09 -884.08,342.09 -372.51,0 -669.54,-113.14 -890.4,-339.49 -219.8,-230.25 -328.8,-543.06 -328.8,-942.33 z m 521.77,-16.02 c 0,283.54 65.29,499.15 195.81,645.63 130.52,146.39 298.08,219.59 499.19,219.59 202.12,0 368.62,-73.2 497.73,-218.27 130.52,-145.09 194.39,-363.41 194.39,-654.96 0,-286.21 -62.76,-501.75 -189.09,-642.86 -126.63,-141.15 -294.19,-211.64 -503.03,-211.64 -207.83,0 -376.8,71.79 -504.5,214.25 -128.04,143.75 -190.5,358.03 -190.5,648.26 z"
   id="path71" />
   <polygon
   class="fil1"
   points="44256.66,9312.56 44256.66,11820.42 43748.36,11820.42 42738,10184.42 42738,11820.42 42266.7,11820.42 42266.7,9312.56 42760.55,9312.56 43786.81,10987.12 43786.81,9312.56 "
   id="polygon73" />
   <path
   class="fil1"
   d="m 44593.46,11004.46 494.15,-47.92 c 29.17,165.03 88.84,287.53 180.77,364.63 89.29,77.27 212.6,117.24 366.42,117.24 163.53,0 285.97,-35.99 368.18,-105.24 83.09,-67.87 124.2,-149.02 124.2,-242.22 0,-58.52 -17.68,-109.15 -52.16,-150.39 -34.47,-41.27 -95.91,-77.21 -182.1,-109.15 -60.11,-21.28 -194.48,-57.26 -406.19,-110.52 -271.39,-65.23 -461.89,-149.09 -571.06,-247.59 -154.7,-138.38 -230.28,-304.87 -230.28,-504.5 0,-127.74 35.8,-247.61 107.85,-357.99 72.93,-111.88 177.24,-197.04 312.93,-254.25 137.02,-57.25 300.56,-87.92 493.71,-87.92 315.58,0 551.17,69.25 712.05,206.31 158.68,139.83 242.22,323.5 249.29,553.75 l -506.09,21.34 c -21.21,-129.11 -68.06,-219.63 -138.78,-276.89 -71.61,-57.23 -179.45,-85.2 -320.45,-85.2 -146.3,0 -262.1,30.59 -346.08,91.87 -54.81,37.26 -81.33,90.49 -81.33,155.72 0,58.63 25.64,107.87 76.02,151.76 63.65,53.23 218.35,109.15 464.54,167.75 247.52,58.51 430.06,118.39 547.19,179.63 118.01,62.62 210.39,147.77 278.02,255.62 66.74,107.85 99.89,240.88 99.89,399.38 0,143.72 -39.78,278.13 -119.78,404.6 -81.33,125.14 -192.71,218.37 -339.46,279.51 -144.97,61.24 -327.51,90.62 -545.86,90.62 -316.91,0 -560.45,-72 -730.62,-219.73 -170.61,-145.03 -271.82,-360.77 -304.97,-640.22 z"
   id="path75" />
   <path
   class="fil1"
   d="m 48688.1,12559.17 h -330.17 c -174.59,-264.88 -307.63,-537.73 -398.24,-822.59 -91.49,-283.53 -136.57,-559.12 -136.57,-825.3 0,-328.83 55.69,-640.33 168.84,-934.48 98.56,-255.61 222.32,-491.13 372.6,-708.16 h 328.84 c -155.58,346.14 -263.87,640.29 -322.21,881.25 -58.79,243.54 -87.96,501.78 -87.96,772 0,187.77 17.24,379.39 52.16,576.41 34.47,194.32 82.21,382.03 142.32,557.71 39.78,117.13 110.5,284.91 210.39,503.16 z"
   id="path77" />
   <path
   class="fil1"
   d="M 48991.75,11820.42 V 9312.56 h 813.27 c 307.63,0 508.3,11.99 601.56,35.98 143.65,37.26 263.43,119.78 360.67,247.63 96.79,125.02 146.3,287.5 146.3,488.49 0,151.76 -27.85,282.15 -83.98,387.28 -57.02,105.23 -127.74,186.47 -212.6,247.6 -86.63,59.91 -174.59,99.88 -263.43,119.88 -121.55,23.93 -295.7,34.51 -524.65,34.51 h -330.17 v 946.49 z m 506.97,-2084.53 v 712.15 h 276.69 c 199.78,0 332.82,-13.36 399.56,-39.9 68.07,-26.69 121.11,-67.97 159.56,-122.48 37.13,-55.99 56.14,-119.84 56.14,-195.72 0,-90.52 -26.52,-166.41 -80.01,-226.26 -53.03,-58.53 -121.1,-95.9 -203.31,-110.5 -60.11,-10.62 -182.99,-17.29 -363.77,-17.29 z"
   id="path79" />
   <path
   class="fil1"
   d="m 51121.28,12559.17 c 95.92,-203.64 162.22,-359.39 201.11,-467.25 39.78,-109.15 74.7,-234.24 107.85,-376.63 33.59,-141.11 58.34,-275.62 73.37,-402.02 15.91,-127.84 23.87,-256.9 23.87,-391.38 0,-270.22 -28.29,-528.46 -87.96,-772 -57.46,-240.96 -163.54,-535.11 -320.89,-881.25 h 327.52 c 171.49,244.93 305.86,505.81 401.77,780.04 94.59,275.5 141.44,555.08 141.44,838.61 0,236.9 -37.57,492.52 -111.82,765.4 -86.63,306.2 -227.63,608.36 -423.43,906.48 z"
   id="path81" />
   <polygon
   class="fil1"
   points="53781.21,11397.16 55040.01,11397.16 55040.01,11820.42 53273.8,11820.42 53273.8,9332.52 53781.21,9332.52 "
   id="polygon83" />
   <polygon
   class="fil1"
   points="56142.35,11820.42 55635.38,11820.42 55635.38,9735.89 54891.06,9735.89 54891.06,9312.56 56885.34,9312.56 56885.34,9735.89 56142.35,9735.89 "
   id="polygon85" />
   <path
   class="fil1"
   d="m 57140.38,9312.56 h 926.86 c 207.3,0 367.3,14.64 476.47,47.98 147.63,42.62 274.48,118.39 379.23,230.26 103.87,111.86 185.2,246.24 239.56,406.01 54.81,161.07 82.66,359.38 82.66,593.62 0,206.37 -26.52,383.36 -77.35,533.76 -63.65,183.76 -152.93,330.19 -270.06,442 -87.96,86.5 -206.41,153.09 -355.37,201 -111.82,35.95 -260.77,53.23 -448.62,53.23 h -953.38 z m 507.41,423.33 v 1661.27 h 378.34 c 141.88,0 243.1,-6.74 305.86,-22.72 82.22,-19.93 150.73,-55.88 205.09,-105.17 54.37,-47.86 98.57,-129.11 131.72,-242.25 34.47,-111.76 51.71,-266.16 51.71,-459.21 0,-192.99 -17.24,-343.39 -51.71,-445.91 -33.15,-103.85 -81.33,-186.36 -143.65,-243.58 -61.44,-58.6 -139.67,-97.17 -234.7,-118.44 -70.28,-14.71 -208.62,-23.99 -415.04,-23.99 z"
   id="path87" />
  </g>
 </g>
</svg>
